%YAML 1.1
%TAG !u! tag:unity3d.com,2011:
--- !u!1001 &7834634018874143997
PrefabInstance:
  m_ObjectHideFlags: 0
  serializedVersion: 2
  m_Modification:
    m_TransformParent: {fileID: 0}
    m_Modifications:
    - target: {fileID: 2177952517438849198, guid: edc14e0aecc43b64ab15e1f26b48f25a, type: 3}
      propertyPath: character
      value: 
      objectReference: {fileID: 0}
    - target: {fileID: 2177952517438849198, guid: edc14e0aecc43b64ab15e1f26b48f25a, type: 3}
      propertyPath: images.Array.data[0]
      value: 
      objectReference: {fileID: 0}
    - target: {fileID: 5805097026682455776, guid: edc14e0aecc43b64ab15e1f26b48f25a, type: 3}
      propertyPath: m_Radius
      value: 0.7777054
      objectReference: {fileID: 0}
    - target: {fileID: 5805097026682455776, guid: edc14e0aecc43b64ab15e1f26b48f25a, type: 3}
      propertyPath: m_Center.x
      value: 0.5020563
      objectReference: {fileID: 0}
    - target: {fileID: 5805097026682455776, guid: edc14e0aecc43b64ab15e1f26b48f25a, type: 3}
      propertyPath: m_Center.y
      value: -0.72913057
      objectReference: {fileID: 0}
    - target: {fileID: 6581353898002988080, guid: edc14e0aecc43b64ab15e1f26b48f25a, type: 3}
      propertyPath: m_LocalPosition.x
      value: -3.8
      objectReference: {fileID: 0}
    - target: {fileID: 6581353898002988080, guid: edc14e0aecc43b64ab15e1f26b48f25a, type: 3}
      propertyPath: m_LocalPosition.y
      value: 137.90001
      objectReference: {fileID: 0}
    - target: {fileID: 6581353898002988080, guid: edc14e0aecc43b64ab15e1f26b48f25a, type: 3}
      propertyPath: m_LocalPosition.z
      value: 0
      objectReference: {fileID: 0}
    - target: {fileID: 6581353898002988080, guid: edc14e0aecc43b64ab15e1f26b48f25a, type: 3}
      propertyPath: m_LocalRotation.x
      value: -0
      objectReference: {fileID: 0}
    - target: {fileID: 6581353898002988080, guid: edc14e0aecc43b64ab15e1f26b48f25a, type: 3}
      propertyPath: m_LocalRotation.y
      value: -0
      objectReference: {fileID: 0}
    - target: {fileID: 6581353898002988080, guid: edc14e0aecc43b64ab15e1f26b48f25a, type: 3}
      propertyPath: m_LocalRotation.z
      value: -0
      objectReference: {fileID: 0}
    - target: {fileID: 6581353898002988080, guid: edc14e0aecc43b64ab15e1f26b48f25a, type: 3}
      propertyPath: m_LocalRotation.w
      value: 1
      objectReference: {fileID: 0}
    - target: {fileID: 6581353898002988080, guid: edc14e0aecc43b64ab15e1f26b48f25a, type: 3}
      propertyPath: m_RootOrder
      value: 0
      objectReference: {fileID: 0}
    - target: {fileID: 6581353898002988080, guid: edc14e0aecc43b64ab15e1f26b48f25a, type: 3}
      propertyPath: m_LocalEulerAnglesHint.x
      value: 0
      objectReference: {fileID: 0}
    - target: {fileID: 6581353898002988080, guid: edc14e0aecc43b64ab15e1f26b48f25a, type: 3}
      propertyPath: m_LocalEulerAnglesHint.y
      value: 0
      objectReference: {fileID: 0}
    - target: {fileID: 6581353898002988080, guid: edc14e0aecc43b64ab15e1f26b48f25a, type: 3}
      propertyPath: m_LocalEulerAnglesHint.z
      value: 0
      objectReference: {fileID: 0}
    - target: {fileID: 6831265828198903113, guid: edc14e0aecc43b64ab15e1f26b48f25a, type: 3}
      propertyPath: m_Name
      value: Enemy PF
      objectReference: {fileID: 0}
    m_RemovedComponents: []
  m_SourcePrefab: {fileID: 100100000, guid: edc14e0aecc43b64ab15e1f26b48f25a, type: 3}
